{
  "swagger": "2.0",
  "info": {
    "title": "Reqres API",
    "description": "Testing API to fetch paginated users",
    "version": "1.0.0"
  },
  "host": "reqres.in",
  "basePath": "/api",
  "schemes": ["https"],
  "paths": {
    "/users": {
      "get": {
        "tags": ["design_get_data"],
        "summary": "Get users list",
        "operationId": "design_get_data",
        "produces": ["application/json"],
        "parameters": [
          {
            "name": "page",
            "in": "query",
            "required": false,
            "type": "number",
            "format": "int32"
          }
        ],
        "responses": {
          "200": {
            "description": "successful operation",
            "schema": {
              "$ref": "#/definitions/design_get_data"
            },
            "examples": {
              "application/json": {
                "page": 1,
                "per_page": 6,
                "total": 12,
                "total_pages": 2,
                "data": [
                  {
                    "id": 1,
                    "email": "george.bluth@reqres.in",
                    "first_name": "George",
                    "last_name": "Bluth",
                    "avatar": "https://reqres.in/img/faces/1-image.jpg"
                  }
                ],
                "support": {
                  "url": "https://reqres.in/#support-heading",
                  "text": "To keep ReqRes free, contributions towards server costs are appreciated!"
                }
              }
            }
          }
        }
      }
    }
  },
  "definitions": {
    "design_get_data##data": {
      "type": "object",
      "properties": {
        "id": { "type": "number" },
        "email": { "type": "string" },
        "first_name": { "type": "string" },
        "last_name": { "type": "string" },
        "avatar": { "type": "string" }
      }
    },
    "design_get_data##support": {
      "type": "object",
      "properties": {
        "url": { "type": "string" },
        "text": { "type": "string" }
      }
    },
    "design_get_data": {
      "type": "object",
      "properties": {
        "page": { "type": "number", "format": "int32" },
        "per_page": { "type": "number", "format": "int32" },
        "total": { "type": "number", "format": "int32" },
        "total_pages": { "type": "number", "format": "int32" },
        "data": {
          "type": "array",
          "items": {
            "$ref": "#/definitions/design_get_data##data"
          }
        },
        "support": {
          "$ref": "#/definitions/design_get_data##support"
        }
      }
    }
  }
}
